1 10 20
100 200 125
201 210 89
900 10005 262
1 1 1
999999 999999 259
1 999999 525
999999 1 525
295151 735696 509
887816 82528 525
371747 615864 470
292678 690830 509
195457 502492 449
799811 416245 509
735761 208482 509
788959 213588 509
5104 705177 509
471482 899502 525
813714 653904 504
90955 661876 509
853598 609461 525
569355 149837 470
803113 434684 509
152636 922619 525
951299 6861 525
690794 210046 509
942580 748661 525
18825 417182 449
900071 411119 525
228599 210869 386
893417 54295 525
299170 707252 509
6762 298852 443
409767 676102 509
777442 548513 509
836112 641626 504
447887 26385 449
705933 557219 509
535265 381186 470
100427 947422 525
254849 787475 509
393002 974136 525
740506 974417 525
312216 658090 509
787637 526806 509
841634 196712 525
863160 299838 525
33120 536962 470
197178 540686 470
829151 517763 509
780118 261445 509
686770 877922 525
709095 454635 509
167070 639837 509
260931 236192 368
112845 826490 509
628065 930323 525
114046 75392 354
964948 324437 525
504444 583031 470
126175 823002 509
868960 744765 525
147162 205733 383
243444 808694 509
448913 54114 449
936499 191055 525
883260 731681 525
196918 865069 525
479752 362261 449
830745 782420 468
635076 487797 509
979036 528708 525
697858 950421 525
616283 969174 525
864349 451695 525
360107 629266 509
443421 745312 509
657090 322492 509
895914 848132 445
55040 297177 443
37595 759603 509
85648 339753 443
97586 979374 525
91622 872549 525
43539 323797 443
814043 520421 509
364341 450708 449
330865 761438 509
911542 567750 525
558906 745941 509
607147 133571 470
208369 964981 525
987850 285624 525
473046 355543 449
461955 754955 509
638083 481293 509
958750 50609 525
331023 617396 470
757408 128570 509
818897 989175 525
144221 213818 383
593085 211382 470
1130 433849 449
217914 711961 509
444429 854294 525
23134 541871 470
342172 221569 443
156675 765675 509
281049 569995 470
348602 1692 443
515896 141173 470
442067 842043 525
778003 180811 509
349398 354033 379
841068 219879 525
174758 146828 383
821486 722940 468
363307 82081 443
429273 969004 525
945632 394010 525
441850 825025 509
652460 233572 509
511685 997659 525
537837 133684 470
772529 999991 525
20023 539768 470
598173 463555 470
570185 805011 509
840823 96726 525
60584 234401 443
623957 167656 470
328276 861841 525
834354 16320 509
346961 356527 379
392562 164779 443
983658 487893 525
316004 611026 470
567733 143687 470
677640 258417 509
918558 370255 525
755828 255418 509
330084 84191 443
266600 512896 470
696660 753957 504
549589 426964 470
281009 770582 509
700309 28313 509
464341 370238 449
425115 211817 449
872884 749790 525
835221 973319 525
82641 35167 351
147934 123058 375
586710 936708 525
242090 148101 443
616426 674667 509
788033 414472 509
986511 862160 507
610441 640892 509
580069 597585 434
16696 205362 383
171628 705027 509
290398 925146 525
774455 94563 509
269837 818763 509
470068 109736 449
995986 445820 525
31536 251498 443
90300 495933 449
274795 499144 449
569528 978356 525
720845 937133 525
819495 216104 509
176784 459533 449
877940 310026 525
996837 81272 525
857385 963800 507
920236 437306 525
539815 97266 470
590364 344031 470
581230 727740 509
42059 933692 525
315578 164284 443
491887 136538 449
471494 620982 470
459349 820548 509
280981 821211 509
815543 837026 450
199195 70523 383
958224 734729 525
202002 678680 509
157866 540439 470
834404 883965 525
776945 533630 509
293053 128927 443
253896 133908 443
719209 10842 509
252138 785356 509
870877 546574 525
541367 135883 470
