1 10 20
100 200 125
201 210 89
900 1000 174
999999 999999 259
1 999999 525
123 452 144
45389 3283 324
12384 238 268
4538 32 238
24 179 125
238 475 144
35849 347525 443
20 348 144
35 285 128
6835 9425 260
3578 7 217
237 90 128
129 2134 182
3584 24978 282
124 235 128
2543 346 209
2346 3257 217
345 3257 217
1262 3263 217
7 8 17
89 708 171
8 93 116
19 81 116
3468 9875 262
98765 345678 443
345678 987654 525
2579 43735 324
2138 2347 183
98 347 144
78 325 131
142 5728 238
1 3 8
4 7 17
783 829 135
238 127 128
896 23456 279
876 445 179
76 45 116
869 235 171
98 125 114
634 122 144
934 213578 383
34582 12573 311
1 90 116
43 74 116
35 76 116
893 900 117
1000 5000 238
4950 8080 262
1235 34724 311
8 23 21
784 888 179
222 333 144
333 444 134
444 988 179
333 889 179
123 324 131
435 545 142
454 8686 262
898 2345 183
7979 8081 190
8 80 116
25 259 128
458 1273 182
797 1284 182
736 475 171
179 25 125
34 79 116
341 797 171
53 790 171
3249 9000 262
179275 327497 443
517293 215793 470
346792 129357 443
152789 712358 509
47 45 105
678 776 171
5675 33457 308
43456 23453 324
689768 346743 509
2 7 17
11 16 18
28 248 128
80 128 119
3794 2579 238
1382 5793 238
348 6804 262
12375 497346 449
1845 6794 262
829 57249 340
753 126 171
2386 74358 340
4357 34975 311
235687 4379 443
2348 7259 262
8694 239487 443
679 28 145
1345 93 182
826 75 171
25 3257 217
548 3804 238
68 75 116
283 285 105
348 739 171
8 47 112
42 75 116
3485 794 217
412 57839 340
345 2137 182
538 479 142
23 759 171
489 89046 351
89 347 144
75 36 116
17 2748 209
1 894 179
3 6894 262
8 394 144
47 427 144
47 7 112
23 479 144
5386 95712 351
7 39 112
47 274 128
75 927 179
12948 73259 340
7839 75 262
2437 753 183
357 352 126
1 68 113
3589 4739 238
5 5 6
3 3 8
893 795 179
21795 29734 308
89 37 116
454 7979 262
21347 6739 279
4357 92734 351
75 347 144
549 749 171
80 79 36
79 800 171
47 49 105
23 28 112
1 1000 179
999000 999999 396
2 1001 179
