1 10 20
100 200 125
201 210 89
900 1000 174
1 1 1
2 2 2
1 6 9
6 11 20
11 16 18
16 21 21
21 26 24
26 31 112
31 36 107
36 41 110
41 46 110
46 51 105
51 56 113
56 61 33
61 66 108
66 71 103
71 76 116
76 81 36
81 86 111
86 91 93
91 96 106
96 101 119
101 106 88
106 111 114
111 116 70
116 121 96
121 126 109
126 131 122
131 136 42
136 141 91
141 146 117
146 151 117
151 156 86
156 161 99
161 166 112
166 171 125
171 176 125
176 181 32
181 186 94
186 191 107
191 196 120
196 201 120
200 205 40
210 215 102
220 225 115
230 235 128
240 245 97
250 255 110
260 265 123
270 275 92
280 285 105
290 295 118
300 305 43
310 315 131
320 325 100
330 335 113
340 345 126
350 355 126
360 365 95
370 375 46
380 385 108
390 395 121
400 405 28
410 415 134
420 425 59
430 435 116
440 445 116
450 455 54
460 465 129
470 475 129
480 485 98
490 495 142
500 505 111
510 515 124
520 525 124
530 535 124
540 545 137
550 555 137
560 565 44
570 575 106
580 585 119
590 595 75
600 605 70
610 615 70
620 625 132
630 635 39
640 645 101
650 655 145
660 665 114
670 675 114
680 685 127
690 695 127
700 705 171
710 715 65
720 725 47
730 735 140
740 745 96
750 755 140
760 765 153
770 775 153
780 785 122
790 795 104
800 805 60
810 815 135
820 825 135
830 835 135
840 845 42
850 855 60
860 865 148
870 875 179
880 885 117
890 895 99
900 905 117
910 915 130
920 925 130
930 935 130
940 945 130
950 955 37
960 965 50
970 975 143
980 985 143
990 995 112
10000 10007 180
100000 100090 310
